[
  {
    "fr" : {
      "nav_projet" : "Projet",
      "nav_equipe" : "Équipe",
      "pitch" : "Livre mi-papier mi-digital à façonner avec votre enfant. Expliquez-lui des sujets de la vie, transformez votre lecture avec des pliages et de la réalité augmentée.",
      "progression" : "Progression du projet",
      "txtMockups" : "On vous dévoile très bientôt <br/> l’application et son livre ! ",
      "apocobi" : {
        "title" : "Des histoires à façonner <br/>avec",
        "apo" : "Bonjour !<br/>Moi, c’est <b>Apo</b> !<br/>Je suis là pour aider les parents." ,
        "cobi": "Moi, c’est <b>Cobi</b> !<br/>J’aide les enfants <br/>à façonner le livre."
      },
      "soon": "Retrouvez-nous bientôt sur <br/>l’app store et en magasin !"
    },
    "en" : {
      "nav_projet" : "Project",
      "nav_equipe" : "Team",
      "pitch" : "Half-paper half-digital book to shape with your child. Transform your reading with folds and augmented reality, explaining life's issues.",
      "progression" : "Project progress",
      "txtMockups" : "We will soon reveal<br/> the app and its book !",
      "apocobi" : {
        "title" : "Stories to shape <br/> with",
        "apo" : "Hello !<br/> my name is <b>Apo</b> ! <br/> I'm here to help parents." ,
        "cobi": "And I am <b>Cobi</b> ! <br/> I help children <br/>to shape the book."
      },
      "soon": "Find us soon on<br/> the app store and in book stores "
    }
  }
]